{
  "neitral": "#070707",
  "dust": "#5C0011",
  "volcano": "#610B00",
  "sunset": "#612500",
  "calendula": "#613400",
  "sunrise": "#614700",
  "lime": "#254000",
  "cyan": "#002329",
  "daybreake": "#002766",
  "geekBlue": "#030852",
  "goldenPurple": "#120338",
  "magenta": "#520339",
  "black": "#121211",
  "white": "#fff"
}
